<svg width="39" height="36" viewBox="0 0 39 36" fill="none" xmlns="http://www.w3.org/2000/svg">
<path d="M27.3817 0H11.6183C5.21195 0 0 4.81103 0 10.7246V25.2754C0 31.189 5.21195 36 11.6183 36H27.3817C33.7881 36 39 31.189 39 25.2754V10.7246C38.9999 4.81103 33.788 0 27.3817 0ZM35.0766 25.2754C35.0766 29.1982 31.6314 32.3784 27.3817 32.3784H11.6183C7.36856 32.3784 3.9234 29.1982 3.9234 25.2754V10.7246C3.9234 6.80169 7.36856 3.6216 11.6183 3.6216H27.3817C31.6314 3.6216 35.0766 6.80169 35.0766 10.7246V25.2754Z" fill="white"/>
<path d="M19.4999 8.68945C13.938 8.68945 9.41309 12.8663 9.41309 18.0003C9.41309 23.1342 13.938 27.3111 19.4999 27.3111C25.0617 27.3111 29.5867 23.1343 29.5867 18.0003C29.5867 12.8662 25.0617 8.68945 19.4999 8.68945ZM19.4999 23.6896C16.0959 23.6896 13.3365 21.1425 13.3365 18.0003C13.3365 14.8582 16.096 12.3111 19.4999 12.3111C22.9038 12.3111 25.6633 14.8582 25.6633 18.0003C25.6633 21.1424 22.9038 23.6896 19.4999 23.6896Z" fill="white"/>
<path d="M29.6065 10.9895C30.9413 10.9895 32.0235 9.99061 32.0235 8.75842C32.0235 7.52623 30.9413 6.52734 29.6065 6.52734C28.2716 6.52734 27.1895 7.52623 27.1895 8.75842C27.1895 9.99061 28.2716 10.9895 29.6065 10.9895Z" fill="white"/>
</svg>
